{
    "type": "/ACORD/RESULTINFO_ADDRESSRECNOTFOUND",
    "title": "Address record not found",
    "status": 400,
    "detail": "Address does not exist for this person",
    "instance": "/client",
    "timestampUtc": "2021-02-05T18:58:3301Z",
    "causes": [
            {
                "type": "/ACORD/RESULTINFO_URLREQUESTDENIED",
                "title": "URL request Denied",
                "status": 401,
                "detail": "Access to this account it not permitted",
                "instance": "/PAS/account",
                "timestampUtc": "2021-02-05T18:58:3301Z"
            },
            {
                "type": "/ACORD/RESULTINFO_URLREQUESTDENIED",
                "title": "URL request Denied",
                "status": 401,
                "detail": "Access to this account it not permitted",
                "instance": "/PAS/account",
                "timestampUtc": "2021-02-05T18:58:3301Z"
            }
    ]
}